<?xml version='1.0' encoding='utf-8'?>
<!DOCTYPE svg>
<!-- Generator: Adobe Illustrator 15.1.0, SVG Export Plug-In . SVG Version: 6.00 Build 0)  -->
<svg xmlns="http://www.w3.org/2000/svg" width="0.800597in" xml:space="preserve" height="0.899986in" version="1.1" x="0px" gorn="0" y="0px"  xmlns:xml="http://www.w3.org/XML/1998/namespace" id="Layer_1" enable-background="new 0 0 57.643 64.799" viewBox="0 0 57.643 64.799">
    <desc >
        <referenceFile >YF-S201_SCHEMATIC_v1.svg</referenceFile>
    </desc>
    <g gorn="0.1"  id="schematic">
        <rect stroke="#000000" width="43.197" stroke-linecap="round" height="50.398" x="7.2" gorn="0.1.0" y="7.2"  id="part_symbol" stroke-width="0.9002" fill="#FFFFFF"/>
        <g gorn="0.1.1"  id="pins">
            <line x2="28.822" stroke="#555555" stroke-linecap="round" gorn="0.1.1.0"  id="connector2pin" y1="57.598" y2="64.799" stroke-width="0.7" stroke-linejoin="round" fill="none" x1="28.822"/>
            <rect stroke="none" width="0.001400000000000006" height="0.01580200000000001" x="28.8213" gorn="0.1.1.1" y="65.141099"  id="connector2terminal" stroke-width="0" fill="none"/>
            <line x2="28.799" stroke="#555555" stroke-linecap="round" gorn="0.1.1.2"  id="connector0pin" y1="7.201" y2="0" stroke-width="0.7" stroke-linejoin="round" fill="none" x1="28.799"/>
            <rect stroke="none" width="0.001400000000000006" height="0.015802" x="28.7983" gorn="0.1.1.3" y="-0.357901"  id="connector0terminal" stroke-width="0" fill="none"/>
            <line x2="0" stroke="#555555" stroke-linecap="round" gorn="0.1.1.4"  id="connector1pin" y1="22.4" y2="22.4" stroke-width="0.7" stroke-linejoin="round" fill="none" x1="7.201"/>
            <rect stroke="none" width="0.015802" height="0.001400000000000006" x="-0.357901" gorn="0.1.1.5" y="22.3993"  id="connector1terminal" stroke-width="0" fill="none"/>
        </g>
        <g gorn="0.1.2"  id="pin_numbers">
            <g transform="matrix(1 0 0 1 30.1624 4.2563)" >
                <g >
                    <g >
                        <g >
                            <g >
                                <text font-size="3" font-family="DroidSans"  fill="#555555">1</text>
                            </g>
                        </g>
                    </g>
                </g>
            </g>
            <g transform="matrix(1 0 0 1 30.1624 62.0737)" >
                <g >
                    <g >
                        <g >
                            <g >
                                <text font-size="3" font-family="DroidSans"  fill="#555555">3</text>
                            </g>
                        </g>
                    </g>
                </g>
            </g>
            <g transform="matrix(1 0 0 1 2.7458 21.0894)" >
                <g >
                    <g >
                        <g >
                            <g >
                                <text font-size="3" font-family="DroidSans" gorn="0.1.2.2.0.0.0.0.0"  id="_x33_" fill="#555555">2</text>
                            </g>
                        </g>
                    </g>
                </g>
            </g>
            <!--Author: Richard Bruneau, 2015-->
        </g>
        <g gorn="0.1.3"  id="pin_labels">
            <g transform="matrix(1 0 0 1 24.6106 54.9858)" >
                <g >
                    <g >
                        <g >
                            <g >
                                <text font-size="4.5" font-family="DroidSans"  fill="#555555">VCC</text>
                            </g>
                        </g>
                    </g>
                </g>
            </g>
            <g transform="matrix(1 0 0 1 25.5266 12.5356)" >
                <g >
                    <g >
                        <g >
                            <g >
                                <text font-size="4.5" font-family="DroidSans"  fill="#555555">SIG</text>
                            </g>
                        </g>
                    </g>
                </g>
            </g>
            <g transform="matrix(1 0 0 1 9.0276 23.8193)" >
                <g >
                    <g >
                        <g >
                            <g >
                                <text font-size="4.5" font-family="DroidSans"  fill="#555555">GND</text>
                            </g>
                        </g>
                    </g>
                </g>
            </g>
        </g>
        <g transform="matrix(1 0 0 1 17.509 35.8188)" >
            <g >
                <g >
                    <g >
                        <g >
                            <g  enable-background="new    ">
                                <text font-size="6" font-family="DroidSans" x="0" y="0" >YF-S201 </text>
                                <text font-size="6" font-family="DroidSans" x="-3.721" y="7.2" >Flow Meter</text>
                            </g>
                        </g>
                    </g>
                </g>
            </g>
        </g>
    </g>
</svg>
